<svg xmlns="http://www.w3.org/2000/svg" fill="none" viewBox="0 0 100 100">
  <g fill="#DF0000" stroke="#FFF" stroke-miterlimit="10" stroke-width="2">
    <path d="M102 103L86 88H-2V34h104v69z"/>
    <path d="M-2 27h104v69L86 81H-2V27z"/>
    <path d="M-2 19h104v70L86 74H-2V19z"/>
    <path d="M-3 12h105v70L86 67H-3V12z"/>
    <path d="M-2 5h104v70L86 60H-2V5z"/>
    <path d="M102 68L86 53H-2V-2h104v70z"/>
    <path d="M29 30a4 4 0 100-9 4 4 0 000 9z" class="blink"/>
    <path d="M51 30a4 4 0 100-9 4 4 0 000 9z" class="blink blink--neg-1"/>
    <path d="M72 30a4 4 0 100-9 4 4 0 000 9z" class="blink blink--neg-2"/>
  </g>
</svg>
