<svg xmlns="http://www.w3.org/2000/svg" fill="none" viewBox="0 0 89 48">
  <path stroke="#000" stroke-width="3" d="M1.5 1.5h45v45h-45zM46 23.9h37.9"/>
  <path stroke="#000" stroke-miterlimit="16" stroke-width="3" d="M74 35l12-11-12-11"/>
</svg>
