<svg xmlns="http://www.w3.org/2000/svg" fill="none" viewBox="0 0 953 953">
  <g fill="#65459B" fill-rule="evenodd" clip-rule="evenodd">
    <path d="M684 828H497L373 953H249V828H21V166L83 0h849v580L684 828zm165-289V83H166v601h186v124l125-124h227l145-145z"/>
    <path d="M621 249v248h83V249h-83zM394 497h83V249h-83v248z"/>
  </g>
</svg>
