<svg xmlns="http://www.w3.org/2000/svg" viewBox="0 0 24 24">
  <path fill-rule="evenodd" d="M14.8 8.9l4.8.4c1 0 1.3 1.2.6 1.7l-3.7 3.2 1.1 4.8a1 1 0 0 1-1.5 1L12 17.5 7.8 20a1 1 0 0 1-1.4-1l1-4.8L3.9 11a1 1 0 0 1 .6-1.7l4.8-.4L11 4.4a1 1 0 0 1 1.8 0L15 9zm-6.6 9l3.8-2.2 3.8 2.2-1-4.2 3.3-3-4.4-.3-1.7-4-1.7 4-4.4.4 3.3 2.8-1 4.3z" clip-rule="evenodd"/>
</svg>
