<svg xmlns="http://www.w3.org/2000/svg" viewBox="0 0 24 24">
  <path  d="M12 17.5l4.2 2.5a1 1 0 0 0 1.4-1l-1-4.8 3.6-3.2a1 1 0 0 0-.6-1.7l-4.8-.4L13 4.4a1 1 0 0 0-1.8 0L9 9l-4.7.4a1 1 0 0 0-.6 1.7l3.7 3.2L6.4 19A1 1 0 0 0 7.9 20l4.1-2.5z"/>
</svg>
