<svg xmlns="http://www.w3.org/2000/svg" fill="none" viewBox="0 0 180 180">
  <path fill="#4B4EFB" d="M149.7 118.41a5.36 5.36 0 00-2.34-3.22c-2.44-1.44-5-.22-7.33.9l-.22.1c-6.45 3.11-13.56 4.78-20.44 6.45-1.23.33-2.45.55-3.34.1-.77-.33-1.44-1.1-1.1-2.44a27.12 27.12 0 001.44-4.22c.77-3 1-5.33.66-7.44a8.66 8.66 0 00-4.1-6.11c.1-.56.33-1.11.33-1.67.44-3-.78-6.22-3.11-8.44-2-2-4.9-3.22-8-3.45a10.8 10.8 0 00-2.11-5.88c-4.56-6-13-4.11-17.67-2.45a64.43 64.43 0 00-21.66 13c-.44.44-1.1.44-1.55 0a1 1 0 01-.34-.78c-.66-6.55-3-12.66-6.77-17.66a29.82 29.82 0 00-16.11-11c-4.78-1.22-10.44-.78-12.44 4.22a8.5 8.5 0 00-.23 5c1 4 4 6.67 7 9l.56.44c1.33 1 2.78 2 3.78 3.34 1.1 1.44 1.88 3.33 2.33 5.89 1 5.1.44 10.55-1.33 15.33-.45 1.1-1 2.22-1.45 3.33-1.22 2.78-2.55 5.55-2.67 8.66-.1 2.45.56 4.78 1 6.56a47.88 47.88 0 0040.1 33.44h.67c1 0 1.9-.23 2.78-.78.22-.11.34-.22.56-.34a86.32 86.32 0 0127.44-12.88c3.33-.89 6.77-1.56 10.1-2.34 4.56-1 9.34-1.88 13.9-3.44 6.55-2.1 15.21-6.33 19.88-14.33a7.55 7.55 0 001.78-6.89z"/>
  <path fill="#000" d="M76.93 132.63c-2 0-3.78-.55-5.22-1.55a8.75 8.75 0 01-2.89-3.89 11.7 11.7 0 01-.44-7.78l1.1.34c-.66 2.33-.55 4.89.45 7a7.1 7.1 0 002.56 3.33c1.89 1.33 4.66 1.77 7.44 1 2.56-.67 4.89-2.11 7.22-3.67 8.22-5.44 17.55-12.22 23.22-21.66a15.43 15.43 0 002.11-5 8.8 8.8 0 00-2.78-7.44c-1.89-1.78-4.66-3-7.55-3.11l.1-1.11c3.23.1 6.23 1.44 8.23 3.44a10.25 10.25 0 013.11 8.44c-.33 2.11-1.33 3.89-2.22 5.45-5.89 9.66-15.22 16.55-23.55 22.1-2.45 1.56-4.78 3.11-7.45 3.78-1.33.11-2.33.33-3.44.33z"/>
  <path fill="#000" d="M93.6 139.19a9.53 9.53 0 01-4-.78 9.83 9.83 0 01-5.9-8.22l1.12-.11c.22 3.1 2.33 6 5.22 7.22 2.22.89 5.1.89 7.78-.11 2.22-.78 4.33-2.22 6.77-4.45 5.22-4.77 9-10.66 10.78-17.1.77-2.78 1-5 .66-7-.44-2.45-1.77-4.45-3.66-5.45l.44-1c2.22 1.12 3.78 3.45 4.33 6.23.45 2.1.23 4.55-.66 7.44a37.43 37.43 0 01-11.11 17.66c-2.56 2.33-4.78 3.78-7.11 4.67-1.67.78-3.11 1-4.67 1z"/>
  <path fill="#000" d="M73.49 159.85h-.67a48 48 0 01-24.33-10.22 48.66 48.66 0 01-15.77-23.22 19.36 19.36 0 01-1-6.55c.1-3.11 1.44-6 2.66-8.67.56-1.1 1-2.22 1.45-3.33a27.7 27.7 0 001.33-15.33c-.44-2.56-1.22-4.44-2.33-5.89-1-1.33-2.45-2.33-3.78-3.33l-.55-.45c-3.11-2.33-6-5-7-9a8.5 8.5 0 01.22-5c2-5 7.78-5.44 12.44-4.21 6.22 1.66 12 5.55 16.1 11 3.79 5 6.12 11 6.79 17.66a1 1 0 00.33.77c.44.34 1.11.34 1.55 0a66.3 66.3 0 0121.67-13c4.66-1.66 13.22-3.55 17.66 2.45a11.25 11.25 0 012 8.33c-.78 5.56-4.56 10-7.78 13.22a71.1 71.1 0 01-18 12.89c-1.88.89-4.1 1.89-6.55 2.11-2.89.22-5.55-.89-6.89-2.78-2.22-2.89-1.22-7 .45-9.44 1.89-2.67 12.55-11.55 18-14.66l.55 1c-5.22 3-15.88 11.77-17.55 14.33-1.56 2.22-2.33 5.77-.56 8.22 1.23 1.66 3.45 2.55 6 2.33 2.22-.11 4.33-1.11 6.11-2a67.8 67.8 0 0017.67-12.66c3.33-3.23 6.77-7.34 7.44-12.56.33-2.89-.22-5.55-1.78-7.55-4.1-5.44-12.1-3.56-16.44-2A65.36 65.36 0 0061.6 95.08c-.89.78-2.22.78-3 0a2.32 2.32 0 01-.78-1.44 34.34 34.34 0 00-6.55-17.1c-4-5.23-9.44-9-15.44-10.56-4.22-1.11-9.44-.78-11.11 3.55a7.14 7.14 0 00-.22 4.34c.89 3.66 3.77 6.22 6.66 8.33l.56.44c1.44 1.11 2.89 2.11 4 3.56 1.22 1.55 2 3.66 2.55 6.33 1 5.22.45 10.89-1.44 16-.45 1.1-1 2.33-1.45 3.44-1.22 2.78-2.44 5.44-2.66 8.33-.11 2.22.44 4.45 1 6.11a46.48 46.48 0 0015.44 22.66c6.78 5.45 15.22 9 23.77 10a5 5 0 002.78-.55.84.84 0 01.44-.23 85.9 85.9 0 0127.78-13 152.7 152.7 0 0110.22-2.33 118.3 118.3 0 0013.77-3.33c6.33-2.1 14.78-6.1 19.33-13.77 1.56-2.56 2-4.67 1.44-6.67-.33-1.11-1-2-1.88-2.55-2-1.23-4.11-.11-6.22.89l-.23.1c-6.55 3.23-13.66 4.9-20.66 6.45-1.11.22-2.67.67-4 0-1.44-.67-2.22-2.11-1.78-3.67l1.11.34c-.33 1.22.34 2 1.12 2.44.88.45 2.1.22 3.33-.11 6.89-1.67 14-3.33 20.44-6.44l.22-.11c2.22-1.12 4.78-2.34 7.33-.9 1.11.67 2 1.9 2.34 3.23.55 2.22.1 4.66-1.56 7.44-4.66 8-13.44 12.22-19.88 14.33-4.56 1.45-9.34 2.44-13.89 3.44-3.33.67-6.78 1.45-10.11 2.34a86.3 86.3 0 00-27.44 12.88c-.22.12-.33.23-.55.34-1 0-2 .22-2.9.22z"/>
  <path fill="#FFF800" d="M40.72 58.87a11.6 11.6 0 01-6.67-2.11c-2.56-2-4.33-5.33-4.67-9.22-.33-3.33.23-6.56.78-9.67.67-3.55 1.33-7.44 3.22-10.88 1.78-3.23 4.56-5.45 7.56-6.22 2.77-.67 5.89-.12 8.22 1.55a9.68 9.68 0 014 7.44l-3.11.23a6.42 6.42 0 00-2.78-5c-1.56-1.11-3.78-1.56-5.67-1.11-2.1.55-4.22 2.22-5.55 4.77-1.67 3-2.33 6.45-2.89 9.89-.55 2.89-1 5.89-.78 8.78.34 3 1.56 5.55 3.45 7a8.17 8.17 0 007.22 1.1 11.45 11.45 0 006.33-4.77l2.56 1.89c-2.12 2.89-4.9 5-8 5.88-.9.34-2.11.45-3.22.45z"/>
  <path fill="#000" d="M40.72 59.42c-2.56 0-5.11-.77-7-2.22-2.67-2-4.45-5.55-4.9-9.55-.32-3.44.23-6.67.79-9.78.66-3.55 1.33-7.55 3.33-11.1 1.89-3.34 4.78-5.67 7.89-6.45 3-.78 6.22-.11 8.77 1.67a10.4 10.4 0 014.22 7.77v.56l-4.22.22V30a6.61 6.61 0 00-2.55-4.67 6.05 6.05 0 00-5.11-1c-2 .56-3.89 2.11-5.22 4.44-1.67 2.9-2.23 6.34-2.78 9.67-.56 2.89-1 5.89-.78 8.66.33 2.9 1.45 5.22 3.22 6.56a7.56 7.56 0 006.78 1 11.23 11.23 0 006-4.56l.33-.44 3.45 2.44-.34.45c-2.22 3-5.1 5.22-8.33 6.1a6.67 6.67 0 01-3.55.78zM43.38 21c-.78 0-1.55.1-2.22.33-2.89.78-5.44 2.89-7.22 6-1.89 3.33-2.56 7.22-3.22 10.66-.56 3.11-1.11 6.23-.78 9.56.33 3.77 2 6.89 4.44 8.77a11.05 11.05 0 009.56 1.56 14.11 14.11 0 007.33-5.22l-1.67-1.22a11.91 11.91 0 01-6.33 4.44 9.02 9.02 0 01-7.78-1.22c-2-1.56-3.33-4.22-3.66-7.33-.33-3 .22-6 .78-9 .55-3.45 1.22-7 3-10.11 1.44-2.56 3.66-4.45 5.88-5a7.1 7.1 0 016.11 1.22 7.25 7.25 0 012.9 4.89l2-.11a9.5 9.5 0 00-3.79-6.45A8.8 8.8 0 0043.38 21z"/>
  <path fill="#FFF800" d="M75.15 77.64a8.53 8.53 0 01-3.77-.77c-5.67-2.45-8-10.56-7.45-17 .78-7.67 4.78-12.44 11.56-13.67 1.55-.33 2.88-.22 4.22 0 2.33.56 4.55 2.23 6 4.45a17.4 17.4 0 012.33 6.66c.78 4.67.22 9-1.45 12.45-2 4.33-5.88 7.22-10.1 7.77-.45 0-.9.11-1.34.11zm2.56-28.44c-.45 0-1 0-1.56.11-5.44 1-8.33 4.56-9 10.9-.55 5.21 1.45 11.99 5.56 13.77 1 .44 2.22.55 3.44.44 3.11-.33 6.11-2.66 7.67-6 1.77-3.66 1.55-7.77 1.1-10.55-.32-2.22-1-4-1.88-5.44-1-1.56-2.44-2.78-4-3.12-.44-.1-.89-.1-1.33-.1z"/>
  <path fill="#000" d="M75.15 78.2a9.52 9.52 0 01-4-.78c-5.88-2.55-8.44-10.89-7.77-17.55.78-7.89 4.89-12.78 12-14.1a9.99 9.99 0 014.44-.01c2.44.56 4.78 2.33 6.33 4.67a17.9 17.9 0 012.33 6.88c.78 4.78.23 9.22-1.44 12.78-2.11 4.44-6.22 7.55-10.55 8-.45 0-.9.1-1.34.1zm2.56-31.55c-.67 0-1.33.11-2 .22-6.56 1.22-10.33 5.78-11.11 13.11-.67 6.22 1.67 14 7.11 16.33 1.44.67 3 .78 4.78.67 4-.45 7.77-3.34 9.66-7.45 1.56-3.33 2.11-7.55 1.33-12.1-.44-2.67-1.1-4.78-2.22-6.45a9.25 9.25 0 00-5.66-4.22c-.56-.11-1.23-.11-1.9-.11zm-2.56 28.33c-1 0-1.89-.23-2.77-.56-4.34-1.89-6.34-8.89-5.9-14.33.67-6.55 3.79-10.33 9.45-11.33a7.32 7.32 0 013.11 0 7.38 7.38 0 014.33 3.33 14.76 14.76 0 011.9 5.67c.44 2.89.66 7.1-1.23 10.88-1.67 3.45-4.78 5.9-8.1 6.23-.12.1-.45.1-.79.1zm2.56-25.22c-.45 0-.89 0-1.45.11-5.1 1-7.88 4.33-8.55 10.33-.56 5 1.33 11.56 5.22 13.22.89.45 2 .56 3.11.45 2.89-.34 5.78-2.56 7.22-5.67 1.67-3.55 1.56-7.55 1.11-10.22a12.54 12.54 0 00-1.77-5.22 6.19 6.19 0 00-3.67-2.89c-.44-.11-.78-.11-1.22-.11z"/>
  <path fill="#FFF800" d="M112.03 79.3a9.42 9.42 0 01-4.77-1.32c-3.22-2-5.34-5.9-6-11-.89-6.67 1-13.89 4.44-17.44 3.67-3.78 9.67-4.67 13.78-2.11 3.55 2.22 5.44 6.77 5.66 13 .22 6.1-1 10.66-3.66 14.1-2 2.78-5.78 4.78-9.45 4.78zm2.23-30.2c-2.23 0-4.56.88-6.23 2.66-2.77 2.89-4.33 9.22-3.66 14.88.55 4.12 2.11 7.23 4.55 8.67 3.22 2 7.9.22 10.11-2.67 2.11-2.77 3.11-6.77 3-12.1-.1-3.56-.89-8.34-4.22-10.45-1-.66-2.22-1-3.55-1z"/>
  <path fill="#000" d="M112.03 79.86a8.53 8.53 0 01-5-1.44c-3.33-2.11-5.55-6.1-6.22-11.33-.88-6.89 1-14.22 4.67-18 3.89-4 10.22-4.89 14.44-2.22 3.67 2.33 5.67 7 5.89 13.44.22 6.22-1 10.89-3.78 14.44a12.58 12.58 0 01-10 5.11zm2.23-33.32c-2.9 0-5.9 1.22-8.11 3.44-3.34 3.45-5.11 10.44-4.34 17 .67 4.89 2.67 8.66 5.67 10.55a8.9 8.9 0 004.44 1.22c3.34 0 6.9-1.77 9-4.55 2.56-3.33 3.67-7.78 3.56-13.78-.23-6-2-10.33-5.34-12.55a8.96 8.96 0 00-4.88-1.33zm-2.23 30.21a7.55 7.55 0 01-3.44-.88c-2.56-1.56-4.22-4.78-4.78-9.11-.77-5.9.9-12.33 3.78-15.33a9.07 9.07 0 016.55-2.78c1.45 0 2.78.33 3.9 1.11 3.44 2.22 4.33 7.1 4.44 10.89.1 5.44-.9 9.55-3.11 12.44a9.48 9.48 0 01-7.34 3.66zm2.23-27.1c-2.12 0-4.34.89-5.78 2.44-2.67 2.78-4.22 8.89-3.44 14.44.55 4 2 6.9 4.22 8.34 3 1.88 7.22.1 9.33-2.56 2.1-2.67 3-6.55 2.89-11.77-.11-3.45-.9-8-3.9-10a6.48 6.48 0 00-3.32-.9z"/>
  <path fill="#FFF800" d="M139.03 105.3l.11-2.1c.56-15.11.33-30.44-.55-45.55l3.1-.23c.9 14.56 1.12 29.22.67 43.77 4.78-1 9.67-1.77 14.44-2.33l.34 3.11c-5.45.56-10.78 1.45-16.11 2.67l-2 .67z"/>
  <path fill="#000" d="M138.36 105.97l.11-2.78c.56-15.1.34-30.32-.55-45.43v-.56l4.22-.22v.56a465 465 0 01.67 43.1c4.55-1 9.22-1.67 13.88-2.11h.56l.44 4.22h-.55c-5.33.56-10.78 1.44-16 2.67l-2.78.55zm.78-47.77c.89 14.89 1.11 30.1.56 45v1.33l1.33-.34a122.91 122.91 0 0115.55-2.66l-.22-2a116.5 116.5 0 00-13.89 2.22l-.66.11v-.67c.44-14.33.22-28.88-.56-43.1l-2.1.11z"/>
</svg>
